<svg width="84" height="84" viewBox="0 0 84 84" fill="none" xmlns="http://www.w3.org/2000/svg">
<rect width="84" height="84" fill="#FFECDB"/>
<path d="M56 22H28C25.78 22 24 23.8 24 26V54C24 56.2 25.8 58 28 58H36L40.58 62.58C41.36 63.36 42.62 63.36 43.4 62.58L48 58H56C58.2 58 60 56.2 60 54V26C60 23.8 58.2 22 56 22ZM42 28.6C44.98 28.6 47.4 31.02 47.4 34C47.4 36.98 44.98 39.4 42 39.4C39.02 39.4 36.6 36.98 36.6 34C36.6 31.02 39.02 28.6 42 28.6ZM54 50H30V48.2C30 44.2 38 42 42 42C46 42 54 44.2 54 48.2V50Z" fill="#FB6F0A"/>
</svg>
